// Jest Snapshot v1, https://goo.gl/fbAQLP

exports[`Genre Option Component renders genre option component correctly 1`] = `
<View
  style={
    {
      "flexDirection": "row",
      "gap": 16,
      "justifyContent": "center",
      "marginBottom": 32,
    }
  }
/>
`;
