// Jest Snapshot v1, https://goo.gl/fbAQLP

exports[`renders BookListComponent correctly 1`] = `
<View
  style={
    {
      "backgroundColor": "white",
      "flex": 1,
      "padding": 32,
    }
  }
>
  <View
    style={
      {
        "flexDirection": "row",
        "gap": 16,
        "justifyContent": "center",
        "marginBottom": 32,
      }
    }
  >
    <View
      style={
        {
          "flexDirection": "row",
          "gap": 16,
          "justifyContent": "center",
          "marginBottom": 32,
        }
      }
    />
  </View>
  <RCTScrollView
    contentContainerStyle={
      {
        "flexDirection": "row",
        "flexWrap": "wrap",
        "gap": 20,
      }
    }
    getItem={[Function]}
    getItemCount={[Function]}
    keyExtractor={[Function]}
    onContentSizeChange={[Function]}
    onLayout={[Function]}
    onMomentumScrollBegin={[Function]}
    onMomentumScrollEnd={[Function]}
    onScroll={[Function]}
    onScrollBeginDrag={[Function]}
    onScrollEndDrag={[Function]}
    removeClippedSubviews={false}
    renderItem={[Function]}
    scrollEventThrottle={50}
    stickyHeaderIndices={[]}
    viewabilityConfigCallbackPairs={[]}
  >
    <View />
  </RCTScrollView>
  <View
    style={
      {
        "alignItems": "center",
        "flexDirection": "row",
        "gap": 8,
        "justifyContent": "flex-end",
      }
    }
  >
    <View
      accessibilityState={
        {
          "busy": undefined,
          "checked": undefined,
          "disabled": true,
          "expanded": undefined,
          "selected": undefined,
        }
      }
      accessibilityValue={
        {
          "max": undefined,
          "min": undefined,
          "now": undefined,
          "text": undefined,
        }
      }
      accessible={true}
      collapsable={false}
      focusable={true}
      onClick={[Function]}
      onResponderGrant={[Function]}
      onResponderMove={[Function]}
      onResponderRelease={[Function]}
      onResponderTerminate={[Function]}
      onResponderTerminationRequest={[Function]}
      onStartShouldSetResponder={[Function]}
      style={
        {
          "backgroundColor": "#40BFFF",
          "borderColor": "#40BFFF",
          "borderRadius": 8,
          "borderWidth": 1,
          "opacity": 1,
        }
      }
      testID="prevButton"
    >
      <Text
        style={
          [
            {
              "paddingHorizontal": 8,
              "paddingVertical": 4,
            },
            {
              "color": "white",
            },
          ]
        }
      >
        Prev
      </Text>
    </View>
    <Text>
      Page 
      0
    </Text>
    <View
      accessibilityState={
        {
          "busy": undefined,
          "checked": undefined,
          "disabled": undefined,
          "expanded": undefined,
          "selected": undefined,
        }
      }
      accessibilityValue={
        {
          "max": undefined,
          "min": undefined,
          "now": undefined,
          "text": undefined,
        }
      }
      accessible={true}
      collapsable={false}
      focusable={true}
      onClick={[Function]}
      onResponderGrant={[Function]}
      onResponderMove={[Function]}
      onResponderRelease={[Function]}
      onResponderTerminate={[Function]}
      onResponderTerminationRequest={[Function]}
      onStartShouldSetResponder={[Function]}
      style={
        {
          "backgroundColor": "#40BFFF",
          "borderColor": "#40BFFF",
          "borderRadius": 8,
          "borderWidth": 1,
          "opacity": 1,
        }
      }
      testID="nextButton"
    >
      <Text
        style={
          [
            {
              "paddingHorizontal": 8,
              "paddingVertical": 4,
            },
            {
              "color": "white",
            },
          ]
        }
      >
        Next
      </Text>
    </View>
  </View>
</View>
`;
